{"api_version": "1.0", "pagination": {"pages": 3, "per_page": 20, "count": 47, "page": 1}, "results": [{"load_date": "2019-07-22T21:11:27+00:00", "party_full": "DEMOCRATIC PARTY", "candidate_status": "C", "federal_funds_flag": false, "state": "MO", "name": "ABUNDIS, VICTOR", "election_districts": ["06"], "first_file_date": "2019-02-18", "incumbent_challenge_full": "Challenger", "election_years": [2020], "office_full": "House", "office": "H", "cycles": [2020], "district": "06", "last_f2_date": "2019-02-18", "party": "DEM", "incumbent_challenge": "C", "last_file_date": "2019-02-18", "candidate_id": "H0MO06180", "active_through": 2020, "has_raised_funds": true, "candidate_inactive": false, "flags": "H0MO06180", "inactive_election_years": null, "district_number": 6}, {"load_date": "2018-02-17T09:16:20+00:00", "party_full": "REPUBLICAN PARTY", "candidate_status": "C", "federal_funds_flag": false, "state": "MO", "name": "AKIN, W TODD", "election_districts": ["00", "00"], "first_file_date": "2011-05-18", "incumbent_challenge_full": "Challenger", "election_years": [2012, 2018], "office_full": "Senate", "office": "S", "cycles": [2012, 2014, 2016, 2018], "district": "00", "last_f2_date": "2012-11-14", "party": "REP", "incumbent_challenge": "C", "last_file_date": "2012-11-14", "candidate_id": "S2MO00429", "active_through": 2018, "has_raised_funds": true, "candidate_inactive": false, "flags": "S2MO00429", "inactive_election_years": null, "district_number": 0}, {"load_date": "2018-04-17T21:13:11+00:00", "party_full": "DEMOCRATIC PARTY", "candidate_status": "C", "federal_funds_flag": false, "state": "MO", "name": "APPLE, GARY WINSTON", "election_districts": ["06"], "first_file_date": "2018-02-07", "incumbent_challenge_full": "Challenger", "election_years": [2018], "office_full": "House", "office": "H", "cycles": [2018], "district": "06", "last_f2_date": "2018-02-07", "party": "DEM", "incumbent_challenge": "C", "last_file_date": "2018-02-07", "candidate_id": "H8MO06118", "active_through": 2018, "has_raised_funds": true, "candidate_inactive": false, "flags": "H8MO06118", "inactive_election_years": null, "district_number": 6}, {"load_date": "2020-08-21T01:04:24+00:00", "party_full": "REPUBLICAN PARTY", "candidate_status": "C", "federal_funds_flag": false, "state": "MO", "name": "BARHAM, JERRY", "election_districts": ["05"], "first_file_date": "2020-06-17", "incumbent_challenge_full": "Challenger", "election_years": [2020], "office_full": "House", "office": "H", "cycles": [2020], "district": "05", "last_f2_date": "2020-06-17", "party": "REP", "incumbent_challenge": "C", "last_file_date": "2020-06-17", "candidate_id": "H0MO05216", "active_through": 2020, "has_raised_funds": true, "candidate_inactive": false, "flags": "H0MO05216", "inactive_election_years": null, "district_number": 5}, {"load_date": "2018-02-07T21:13:27+00:00", "party_full": "REPUBLICAN PARTY", "candidate_status": "C", "federal_funds_flag": false, "state": "KS", "name": "BEVENS, MATTHEW RYAN", "election_districts": ["02"], "first_file_date": "2017-11-26", "incumbent_challenge_full": "Open seat", "election_years": [2018], "office_full": "House", "office": "H", "cycles": [2018], "district": "02", "last_f2_date": "2017-11-26", "party": "REP", "incumbent_challenge": "O", "last_file_date": "2017-11-26", "candidate_id": "H8KS02207", "active_through": 2018, "has_raised_funds": true, "candidate_inactive": false, "flags": "H8KS02207", "inactive_election_years": null, "district_number": 2}, {"load_date": "2021-04-07T08:02:02+00:00", "party_full": "REPUBLICAN PARTY", "candidate_status": "C", "federal_funds_flag": false, "state": "MO", "name": "BLUNT, ROY", "election_districts": ["00", "00", "00"], "first_file_date": "2009-02-19", "incumbent_challenge_full": "Incumbent", "election_years": [2010, 2016, 2022], "office_full": "Senate", "office": "S", "cycles": [2010, 2012, 2014, 2016, 2018, 2020, 2022], "district": "00", "last_f2_date": "2016-12-27", "party": "REP", "incumbent_challenge": "I", "last_file_date": "2016-12-27", "candidate_id": "S0MO00183", "active_through": 2022, "has_raised_funds": true, "candidate_inactive": true, "flags": "S0MO00183", "inactive_election_years": [2022], "district_number": 0}, {"load_date": "2021-04-16T01:09:08+00:00", "party_full": "DEMOCRATIC PARTY", "candidate_status": "C", "federal_funds_flag": false, "state": "KS", "name": "BOLLIER, BARBARA", "election_districts": ["00"], "first_file_date": "2019-10-16", "incumbent_challenge_full": "Open seat", "election_years": [2020], "office_full": "Senate", "office": "S", "cycles": [2020, 2022], "district": "00", "last_f2_date": "2021-04-15", "party": "DEM", "incumbent_challenge": "O", "last_file_date": "2021-04-15", "candidate_id": "S0KS00323", "active_through": 2020, "has_raised_funds": true, "candidate_inactive": false, "flags": "S0KS00323", "inactive_election_years": null, "district_number": 0}, {"load_date": "2019-10-17T21:13:50+00:00", "party_full": "DEMOCRATIC PARTY", "candidate_status": "C", "federal_funds_flag": false, "state": "KS", "name": "BOYDA, NANCY E", "election_districts": ["00"], "first_file_date": "2019-06-28", "incumbent_challenge_full": "Open seat", "election_years": [2020], "office_full": "Senate", "office": "S", "cycles": [2020], "district": "00", "last_f2_date": "2019-06-28", "party": "DEM", "incumbent_challenge": "O", "last_file_date": "2019-06-28", "candidate_id": "S0KS00224", "active_through": 2020, "has_raised_funds": true, "candidate_inactive": false, "flags": "S0KS00224", "inactive_election_years": null, "district_number": 0}, {"load_date": "2021-01-29T01:13:04+00:00", "party_full": "DEMOCRATIC PARTY", "candidate_status": "C", "federal_funds_flag": false, "state": "MO", "name": "BUSH, CORI", "election_districts": ["01", "01", "01"], "first_file_date": "2017-04-20", "incumbent_challenge_full": "Incumbent", "election_years": [2018, 2020, 2022], "office_full": "House", "office": "H", "cycles": [2018, 2020, 2022], "district": "01", "last_f2_date": "2020-12-22", "party": "DEM", "incumbent_challenge": "I", "last_file_date": "2020-12-22", "candidate_id": "H8MO01143", "active_through": 2022, "has_raised_funds": true, "candidate_inactive": false, "flags": "H8MO01143", "inactive_election_years": null, "district_number": 1}, {"load_date": "2016-07-11T20:58:46+00:00", "party_full": "REPUBLICAN PARTY", "candidate_status": "C", "federal_funds_flag": false, "state": "MO", "name": "BYRNE, MARY RADASZEWSKI MRS", "election_districts": ["07"], "first_file_date": "2016-05-16", "incumbent_challenge_full": "Challenger", "election_years": [2016], "office_full": "House", "office": "H", "cycles": [2016], "district": "07", "last_f2_date": "2016-05-16", "party": "REP", "incumbent_challenge": "C", "last_file_date": "2016-05-16", "candidate_id": "H6MO07268", "active_through": 2016, "has_raised_funds": true, "candidate_inactive": false, "flags": "H6MO07268", "inactive_election_years": null, "district_number": 7}, {"load_date": "2021-04-22T01:05:58+00:00", "party_full": "DEMOCRATIC PARTY", "candidate_status": "C", "federal_funds_flag": false, "state": "MO", "name": "CLEAVER, EMANUEL II", "election_districts": ["05", "05", "05", "05", "05", "05", "05", "05", "05", "05"], "first_file_date": "2004-02-06", "incumbent_challenge_full": "Incumbent", "election_years": [2004, 2006, 2008, 2010, 2012, 2014, 2016, 2018, 2020, 2022], "office_full": "House", "office": "H", "cycles": [2004, 2006, 2008, 2010, 2012, 2014, 2016, 2018, 2020, 2022], "district": "05", "last_f2_date": "2021-04-08", "party": "DEM", "incumbent_challenge": "I", "last_file_date": "2021-04-08", "candidate_id": "H4MO05234", "active_through": 2022, "has_raised_funds": true, "candidate_inactive": false, "flags": "H4MO05234", "inactive_election_years": null, "district_number": 5}, {"load_date": "2017-04-10T20:57:55+00:00", "party_full": "REPUBLICAN PARTY", "candidate_status": "C", "federal_funds_flag": false, "state": "KS", "name": "COBB, ALAN EARL", "election_districts": ["04"], "first_file_date": "2017-02-02", "incumbent_challenge_full": "Open seat", "election_years": [2017], "office_full": "House", "office": "H", "cycles": [2018], "district": "04", "last_f2_date": "2017-02-02", "party": "REP", "incumbent_challenge": "O", "last_file_date": "2017-02-02", "candidate_id": "H8KS04161", "active_through": 2017, "has_raised_funds": true, "candidate_inactive": false, "flags": "H8KS04161", "inactive_election_years": null, "district_number": 4}, {"load_date": "2021-02-01T01:05:17+00:00", "party_full": "DEMOCRATIC PARTY", "candidate_status": "C", "federal_funds_flag": false, "state": "KS", "name": "DAVIDS, SHARICE", "election_districts": ["03", "03", "03"], "first_file_date": "2018-02-16", "incumbent_challenge_full": "Incumbent", "election_years": [2018, 2020, 2022], "office_full": "House", "office": "H", "cycles": [2018, 2020, 2022], "district": "03", "last_f2_date": "2020-12-21", "party": "DEM", "incumbent_challenge": "I", "last_file_date": "2020-12-21", "candidate_id": "H8KS03155", "active_through": 2022, "has_raised_funds": true, "candidate_inactive": false, "flags": "H8KS03155", "inactive_election_years": null, "district_number": 3}, {"load_date": "2020-04-16T21:12:37+00:00", "party_full": "REPUBLICAN PARTY", "candidate_status": "C", "federal_funds_flag": false, "state": "MO", "name": "DERKS, RYAN", "election_districts": ["05"], "first_file_date": "2020-02-03", "incumbent_challenge_full": "Challenger", "election_years": [2020], "office_full": "House", "office": "H", "cycles": [2020], "district": "05", "last_f2_date": "2020-02-03", "party": "REP", "incumbent_challenge": "C", "last_file_date": "2020-02-03", "candidate_id": "H0MO05208", "active_through": 2020, "has_raised_funds": true, "candidate_inactive": false, "flags": "H0MO05208", "inactive_election_years": null, "district_number": 5}, {"load_date": "2017-10-18T21:02:35+00:00", "party_full": "DEMOCRATIC PARTY", "candidate_status": "C", "federal_funds_flag": false, "state": "MO", "name": "DUNAWAY, KELLIN LYNN", "election_districts": ["02"], "first_file_date": "2017-07-07", "incumbent_challenge_full": "Challenger", "election_years": [2018], "office_full": "House", "office": "H", "cycles": [2018], "district": "02", "last_f2_date": "2017-07-07", "party": "DEM", "incumbent_challenge": "C", "last_file_date": "2017-07-17", "candidate_id": "H8MO02190", "active_through": 2018, "has_raised_funds": true, "candidate_inactive": false, "flags": "H8MO02190", "inactive_election_years": null, "district_number": 2}, {"load_date": "2018-04-17T21:13:11+00:00", "party_full": "REPUBLICAN PARTY", "candidate_status": "C", "federal_funds_flag": false, "state": "MO", "name": "EVANS, JIM", "election_districts": ["07"], "first_file_date": "2017-06-08", "incumbent_challenge_full": "Challenger", "election_years": [2018], "office_full": "House", "office": "H", "cycles": [2018], "district": "07", "last_f2_date": "2017-07-06", "party": "REP", "incumbent_challenge": "C", "last_file_date": "2017-07-06", "candidate_id": "H8MO07173", "active_through": 2018, "has_raised_funds": true, "candidate_inactive": false, "flags": "H8MO07173", "inactive_election_years": null, "district_number": 7}, {"load_date": "2020-04-15T21:14:55+00:00", "party_full": "DEMOCRATIC PARTY", "candidate_status": "C", "federal_funds_flag": false, "state": "MO", "name": "FARRIS, RAMONA", "election_districts": ["06"], "first_file_date": "2020-02-18", "incumbent_challenge_full": "Challenger", "election_years": [2020], "office_full": "House", "office": "H", "cycles": [2020], "district": "06", "last_f2_date": "2020-02-18", "party": "DEM", "incumbent_challenge": "C", "last_file_date": "2020-02-18", "candidate_id": "H0MO06198", "active_through": 2020, "has_raised_funds": true, "candidate_inactive": false, "flags": "H0MO06198", "inactive_election_years": null, "district_number": 6}, {"load_date": "2018-01-09T21:09:43+00:00", "party_full": "REPUBLICAN PARTY", "candidate_status": "C", "federal_funds_flag": false, "state": "KS", "name": "FIELDS, VERNON JAMES", "election_districts": ["02"], "first_file_date": "2017-02-25", "incumbent_challenge_full": "Open seat", "election_years": [2018], "office_full": "House", "office": "H", "cycles": [2018], "district": "02", "last_f2_date": "2017-02-25", "party": "REP", "incumbent_challenge": "O", "last_file_date": "2017-02-25", "candidate_id": "H8KS02132", "active_through": 2018, "has_raised_funds": true, "candidate_inactive": false, "flags": "H8KS02132", "inactive_election_years": null, "district_number": 2}, {"load_date": "2018-01-09T21:09:43+00:00", "party_full": "REPUBLICAN PARTY", "candidate_status": "C", "federal_funds_flag": false, "state": "KS", "name": "FITZGERALD, STEPHEN EDWARD", "election_districts": ["02"], "first_file_date": "2017-04-01", "incumbent_challenge_full": "Open seat", "election_years": [2018], "office_full": "House", "office": "H", "cycles": [2018], "district": "02", "last_f2_date": "2017-05-17", "party": "REP", "incumbent_challenge": "O", "last_file_date": "2017-05-17", "candidate_id": "H8KS02140", "active_through": 2018, "has_raised_funds": true, "candidate_inactive": false, "flags": "H8KS02140", "inactive_election_years": null, "district_number": 2}, {"load_date": "2019-08-05T21:05:21+00:00", "party_full": "DEMOCRATIC PARTY", "candidate_status": "C", "federal_funds_flag": false, "state": "MO", "name": "GEPPERT, KATY", "election_districts": ["03", "03"], "first_file_date": "2018-02-14", "incumbent_challenge_full": "Challenger", "election_years": [2018, 2020], "office_full": "House", "office": "H", "cycles": [2018, 2020], "district": "03", "last_f2_date": "2019-02-12", "party": "DEM", "incumbent_challenge": "C", "last_file_date": "2019-02-12", "candidate_id": "H8MO03198", "active_through": 2020, "has_raised_funds": true, "candidate_inactive": false, "flags": "H8MO03198", "inactive_election_years": null, "district_number": 3}]}